{
  "Bloomberg Adria": {
    "domain": "bloombergadria.com",
    "allow_cookies": 1,
    "block_js_inline": "\\.bloombergadria\\.com\\/.+\\/news\\/",
    "cs_code": "[{\"cond\":\"article[style]\",\"rm_attrib\":\"style\"}]",
    "new_site": 1
  },
  "Harper's Magazine": {
    "domain": "harpers.org",
    "block_regex": "\\/harpers\\.org\\/wp-content\\/themes\\/timber\\/static\\/js\\/modal.+\\.js"
  },
  "Inkl": {
    "domain": "inkl.com",
    "cs_code": "[{\"cond\":\"div.paywall\",\"rm_attrib\":\"class\"}]"
  },
  "LosAndes.com.ar": {
    "domain": "losandes.com.ar",
    "allow_cookies": 1,
    "block_regex": "cdn\\.lavoz\\.com\\.ar\\/sites\\/.+\\/paywall\\/losandes\\/pw\\.js"
  },
  "New Scientist": {
    "domain": "newscientist.com",
    "allow_cookies": 1,
    "ld_google_webcache": "#subscription-barrier|div.article-body,article"
  },
  "NK News (free articles only)": {
    "domain": "nknews.org",
    "remove_cookies_select_drop": ["issuem_lp", "issuem_lp_kp"]
  },
  "Quartz": {
    "domain": "qz.com",
    "allow_cookies": 1,
    "block_regex": "\\.kinja-static\\.com\\/assets\\/.+\\/regwalled-content.+\\.js"
  },
  "Quotidiano.net (+ regional)": {
    "domain": "###_it_quotidiano",
    "group": [
      "ilgiorno.it",
      "ilrestodelcarlino.it",
      "iltelegrafolivorno.it",
      "lanazione.it",
      "quotidiano.net"
    ],
    "allow_cookies": 1,
    "block_regex": "(\\.tinypass\\.com\\/|cdn\\.ampproject\\.org\\/v\\d\\/amp-access-.+\\.js)",
    "amp_redirect": "div[data-testid='paywall-container'], div[class^='Paywall_paywall_']"
  },
  "Rheinische Post Mediengruppe": {
    "domain": "###_de_rp_medien",
    "group": [
      "aachener-nachrichten.de",
      "aachener-zeitung.de",
      "ga.de",
      "rp-online.de",
      "saarbruecker-zeitung.de",
      "volksfreund.de"
    ],
    "allow_cookies": 1,
    "useragent": "facebookbot"
  },
  "The Atlanta Journal-Constitution": {
    "domain": "ajc.com",
    "allow_cookies": 1,
    "block_regex": "(\\.ajc\\.com\\/prod\\/ajc\\/loader\\.min\\.js|cdn\\.ampproject\\.org\\/v\\d\\/amp-access-.+\\.js)"
  }
}
